pipeline {
  agent any
  stages {  
      stage('Maven Compile'){
        steps{
            echo 'Project compile stage'
            
               }
    }
  
    stage('Unit Test') {
       steps {
            echo 'Project Testing stage'
            
         
       }
       }
  
   
   
    
      
    stage('SonarQube'){
        steps{
                bat label: '', script: '''mvn sonar:sonar \
  -Dsonar.projectKey=maven \
  -Dsonar.host.url=http://localhost:9000 \
  -Dsonar.login=2e0f49ea85101f273dc0febc910a521d8d98e720'''
            }
           }     
  
   }
}
